425864 730626 509
837135 962110 525
606317 928149 525
823505 881735 525
230879 961956 525
492592 579817 470
655246 877479 525
802211 879742 525
543719 733857 509
688878 916532 525
128519 466721 449
166387 587098 470
900775 957673 507
449457 487960 444
699763 885389 525
441125 450689 387
841784 866094 419
812527 899745 525
679247 987281 525
373179 481108 449
403258 959433 525
480169 646032 509
285392 721059 509
913768 966315 507
137309 790571 509
672546 806452 504
105208 925107 525
387463 658288 509
954636 955015 383
596809 690711 509
874058 898804 445
917113 926188 445
330403 688598 509
258692 571915 470
677278 895294 525
114924 606429 470
261254 682357 509
683191 762803 504
72558 740449 509
209326 608896 470
793376 906967 525
220122 354001 443
136064 519530 470
903695 908773 445
845100 894792 445
654489 663224 429
714735 875024 525
561624 698099 509
41733 854293 525
220078 726451 509
199959 455912 449
100556 779746 509
404785 582291 470
30367 941682 525
399627 412512 449
790570 891791 525
435464 462256 444
50901 306974 443
526848 960370 525
859032 956397 507
89518 430472 449
547908 873599 525
612960 664293 509
405991 689849 509
866018 987201 507
747981 816291 468
380731 627974 509
234388 481067 449
418397 943883 525
388890 505250 449
634375 742542 504
962013 998700 458
459841 776307 509
300018 371012 441
66664 710754 509
605911 820951 509
479363 672180 509
912309 926238 445
880402 905255 445
469839 722050 509
105275 766649 509
369926 495502 449
69727 901627 525
720607 958785 525
174958 482725 449
315153 461580 449
57382 317146 443
929417 981505 507
822257 855088 525
541142 666687 509
133768 857077 525
671930 920978 525
641146 977305 525
962869 992938 458
576644 760771 509
447674 559565 470
426512 675911 509
648100 972690 525
847519 870921 419
481064 984356 525
504589 890004 525
570178 582077 390
582123 757805 509
119239 327227 443
12349 601591 470
210709 810059 509
155966 832842 509
739153 964252 525
378504 466274 449
323999 367560 441
862573 923024 476
140567 258994 443
938047 967562 507
390807 518515 470
407446 753568 509
77528 465643 449
464321 657815 509
926518 994816 507
254926 428279 449
618163 692162 509
68167 326219 443
15938 957955 525
624499 647047 509
446699 725739 509
770207 875578 525
350316 770214 509
139883 401668 443
857164 931636 476
484201 841437 525
148836 395799 443
830097 913186 525
159068 968908 525
149174 535842 470
738989 940948 525
27280 741448 509
540323 774792 509
557411 704089 509
962011 982433 458
181789 772123 509
690347 728222 504
718508 898005 525
778856 853141 525
278482 455145 449
53598 682185 509
81576 168354 383
115938 976082 525
758723 830997 468
94585 473311 449
156255 970717 525
387814 533082 470
905552 952701 507
640132 820555 504
152639 763387 509
801068 867897 525
306974 995519 525
800878 810547 406
245065 555514 470
102819 263429 443
216327 687266 509
703651 907379 525
850286 947587 507
214751 582884 470
8383 784626 509
520007 795319 509
800980 947538 525
596565 994185 525
400136 534630 470
474833 966424 525
462675 950831 525
469851 558031 470
432516 627524 509
806636 808039 406
202913 567521 470
548077 835488 509
801297 923409 525
419176 622358 470
422072 975863 525
729947 821907 468
36449 353558 443
786076 834161 468
461201 708986 509
911077 933229 476
790604 815686 468
767127 802307 468
106220 922237 525
3426 976069 525
308786 594335 470
476438 896089 525
279327 481351 449
833460 883466 525
975733 977601 383
75013 428732 449
831564 921238 525
837498 955853 525
238943 585930 470
288128 376283 441
363335 990849 525
535407 860334 525
221491 575206 470
284697 810187 509
583161 743946 509
337581 926755 525
218302 989876 525
1293 209398 383
466253 542036 470
491826 645923 509
504797 651588 509
416687 888072 525
380020 743381 509
258991 296618 407
928649 994293 507
544508 796663 509
213547 348954 443
269992 840963 525
368401 698500 509
752921 949267 525
913377 987729 507
69051 830834 509
376328 506036 449
991215 992033 321
596590 712861 509
960687 975912 458
117028 212752 383
291822 779168 509
928837 987319 507
379154 923987 525
151600 243859 443
130575 397313 443
327884 336081 353
674440 945351 525
328018 791398 509
167158 752587 509
933780 970590 507
894847 985149 507
255252 340055 407
480572 790232 509
271944 715002 509
99800 386501 443
602595 736935 509
401905 508815 449
68928 106593 354
463475 859461 525
523939 919695 525
788377 860307 525
502923 721599 509
454841 569055 470
733136 952347 525
637667 856182 525
178095 340356 443
867054 899472 445
